E1;Traduit_en_attente_de_révision
E2;Traduit_en_attente_de_révision
E3;Traduit_en_attente_de_révision
E4;Traduit_en_attente_de_révision
E5;Validé
E6;Validé
E7;Validé
E8;Traduit_en_attente_de_révision
E9;Validé
E10;En_cours_de_traduction
E11;Validé
E12;En_cours_de_révision
E13;Traduit_en_attente_de_révision
E14;Traduit_en_attente_de_révision
E15;En_cours_de_révision
E16;Traduit_en_attente_de_révision
E17;Traduit_en_attente_de_révision
E18;Validé
E19;Validé
E20;Traduit_en_attente_de_révision
E21;En_cours_de_révision
E22;Validé
E24;En_cours_de_révision
E25;En_cours_de_révision
E26;Traduit_en_attente_de_révision
E27;Traduit_en_attente_de_révision
E28;Traduit_en_attente_de_révision
E29;Traduit_en_attente_de_révision
E30;Validé
E31;Traduit_en_attente_de_révision
E32;Traduit_en_attente_de_révision
E33;En_cours_de_traduction
E34;Traduit_en_attente_de_révision
E35;Traduit_en_attente_de_révision
E36;Traduit_en_attente_de_révision
E37;Traduit_en_attente_de_révision
E39;Validé
E41;Traduit_en_attente_de_révision
E42;A_traduire
E52;Traduit_en_attente_de_révision
E53;Traduit_en_attente_de_révision
E54;A_traduire
E55;Validé
E56;Validé
E57;Traduit_en_attente_de_révision
E58;Traduit_en_attente_de_révision
E59;A_traduire
E60;A_traduire
E61;A_traduire
E62;A_traduire
E63;En_cours_de_traduction
E64;En_cours_de_révision
E65;Validé
E66;A_traduire
E67;Traduit_en_attente_de_révision
E68;Validé
E69;Validé
E70;En_cours_de_révision
E71;Traduit_en_attente_de_révision
E72;A_traduire
E73;A_traduire
E74;En_cours_de_révision
E77;Traduit_en_attente_de_révision
E78;Traduit_en_attente_de_révision
E79;Traduit_en_attente_de_révision
E80;En_cours_de_traduction
E81;Not_in_pipe
E83;En_cours_de_traduction
E85;A_traduire
E86;A_traduire
E87;Traduit_en_attente_de_révision
E89;Traduit_en_attente_de_révision
E90;A_traduire
E92;A_traduire
E93;A_traduire
E94;En_cours_de_traduction
E95;Not_in_pipe
E96;Traduit_en_attente_de_révision
E97;Not_in_pipe
E98;Traduit_en_attente_de_révision
E99;Traduit_en_attente_de_révision
P1;Traduit_en_attente_de_révision
P2;Traduit_en_attente_de_révision
P3;Traduit_en_attente_de_révision
P4;Not_in_pipe
P5;Not_in_pipe
P7;En_cours_de_révision
P8;Not_in_pipe
P9;Not_in_pipe
P10;A_traduire
P11;Validé
P12;En_cours_de_révision
P13;A_traduire
P14;Traduit_en_attente_de_révision
P15;Traduit_en_attente_de_révision
P16;Traduit_en_attente_de_révision
P17;Traduit_en_attente_de_révision
P19;Traduit_en_attente_de_révision
P20;Traduit_en_attente_de_révision
P21;Traduit_en_attente_de_révision
P22;Traduit_en_attente_de_révision
P23;Traduit_en_attente_de_révision
P24;Traduit_en_attente_de_révision
P25;Traduit_en_attente_de_révision
P26;Traduit_en_attente_de_révision
P27;Traduit_en_attente_de_révision
P28;Traduit_en_attente_de_révision
P29;Traduit_en_attente_de_révision
P30;Traduit_en_attente_de_révision
P31;Traduit_en_attente_de_révision
P32;Traduit_en_attente_de_révision
P33;Traduit_en_attente_de_révision
P34;Traduit_en_attente_de_révision
P35;Traduit_en_attente_de_révision
P37;Traduit_en_attente_de_révision
P38;Traduit_en_attente_de_révision
P39;Validé
P40;Traduit_en_attente_de_révision
P41;En_cours_de_traduction
P42;En_cours_de_traduction
P43;A_traduire
P44;Validé
P45;Validé
P46;Validé
P48;Not_in_pipe
P49;Validé
P50;Validé
P51;Validé
P52;Validé
P53;Validé
P54;Validé
P55;Traduit_en_attente_de_révision
P56;Validé
P57;Validé
P59;Validé
P62;Traduit_en_attente_de_révision
P65;Traduit_en_attente_de_révision
P67;A_traduire
P68;A_traduire
P69;A_traduire
P70;A_traduire
P71;Not_in_pipe
P72;A_traduire
P73;A_traduire
P74;A_traduire
P75;A_traduire
P76;A_traduire
P79;Validé
P80;Validé
P81;Traduit_en_attente_de_révision
P82;Traduit_en_attente_de_révision
P86;Traduit_en_attente_de_révision
P89;En_cours_de_traduction
P90;Not_in_pipe
P91;Not_in_pipe
P92;Not_in_pipe
P93;A_traduire
P94;En_cours_de_traduction
P95;A_traduire
P96;Traduit_en_attente_de_révision
P97;Traduit_en_attente_de_révision
P98;Traduit_en_attente_de_révision
P99;Validé
P100;Validé
P101;Traduit_en_attente_de_révision
P102;A_traduire
P103;A_traduire
P104;A_traduire
P105;A_traduire
P106;Validé
P107;Not_in_pipe
P108;Not_in_pipe
P109;Traduit_en_attente_de_révision
P110;Not_in_pipe
P111;Not_in_pipe
P112;Not_in_pipe
P113;Not_in_pipe
P121;En_cours_de_traduction
P122;En_cours_de_traduction
P123;Not_in_pipe
P124;Not_in_pipe
P125;Traduit_en_attente_de_révision
P126;Traduit_en_attente_de_révision
P127;Traduit_en_attente_de_révision
P128;Traduit_en_attente_de_révision
P129;A_traduire
P130;A_traduire
P132;En_cours_de_traduction
P133;Not_in_pipe
P134;Traduit_en_attente_de_révision
P135;Traduit_en_attente_de_révision
P136;En_cours_de_traduction
P137;Not_in_pipe
P138;A_traduire
P139;A_traduire
P140;Traduit_en_attente_de_révision
P141;Traduit_en_attente_de_révision
P142;Traduit_en_attente_de_révision
P143;A_traduire
P144;A_traduire
P145;A_traduire
P146;A_traduire
P147;A_traduire
P148;A_traduire
P150;Traduit_en_attente_de_révision
P151;A_traduire
P152;Not_in_pipe
P156;Traduit_en_attente_de_révision
P157;Traduit_en_attente_de_révision
P160;Not_in_pipe
P161;Not_in_pipe
P164;A_traduire
P165;A_traduire
P166;A_traduire
P167;A_traduire
P168;En_cours_de_traduction
P169;Not_in_pipe
P170;Not_in_pipe
P171;Not_in_pipe
P172;Not_in_pipe
P173;Not_in_pipe
P174;Not_in_pipe
P175;Not_in_pipe
P176;Not_in_pipe
P177;Traduit_en_attente_de_révision
P179;Traduit_en_attente_de_révision
P180;Not_in_pipe
P181;Not_in_pipe
P182;Not_in_pipe
P183;Not_in_pipe
P184;Not_in_pipe
P185;Not_in_pipe
P186;Not_in_pipe
P187;Traduit_en_attente_de_révision
P188;Traduit_en_attente_de_révision
P189;Not_in_pipe
P190;Traduit_en_attente_de_révision
P191;Traduit_en_attente_de_révision
P195;A_traduire
P196;Traduit_en_attente_de_révision
P197;A_traduire
P198;Validé
