concept;groupL;modality;weight
E1;E1;Traduit_en_attente_de_révision;87
E2;E1;Traduit_en_attente_de_révision;152
E3;E2;Traduit_en_attente_de_révision;109
E4;E2;Traduit_en_attente_de_révision;960
E5;E4;Validé;363
E7;E5;Validé;58
E8;E7;Traduit_en_attente_de_révision;87
E96;E8;Traduit_en_attente_de_révision;167
E9;E7;Validé;123
E10;E7;En_cours_de_traduction;54
E11;E7;Validé;256
E12;E11;En_cours_de_révision;186
E79;E11;Traduit_en_attente_de_révision;191
E80;E11;En_cours_de_traduction;189
E13;E7;Traduit_en_attente_de_révision;345
E14;E13;Traduit_en_attente_de_révision;63
E15;E13;En_cours_de_révision;211
E16;E13;Traduit_en_attente_de_révision;400
E17;E13;Traduit_en_attente_de_révision;76
E65;E7;Validé;27
E83;E65;En_cours_de_traduction;105
E66;E7;A_traduire;96
E85;E7;A_traduire;74
E86;E7;A_traduire;70
E87;E7;Traduit_en_attente_de_révision;125
E63;E5;En_cours_de_traduction;52
E67;E63;Traduit_en_attente_de_révision;107
E81;E63;Not_in_pipe;212
E64;E5;En_cours_de_révision;79
E6;E64;Validé;71
E68;E64;Validé;38
E69;E64;Validé;48
E77;E1;Traduit_en_attente_de_révision;411
E70;E77;En_cours_de_révision;65
E72;E70;A_traduire;94
E18;E72;Validé;215
E19;E18;Validé;128
E20;E19;Traduit_en_attente_de_révision;48
E21;E20;En_cours_de_révision;144
E22;E19;Validé;58
E24;E18;En_cours_de_révision;252
E25;E24;En_cours_de_révision;35
E78;E24;Traduit_en_attente_de_révision;189
E26;E18;Traduit_en_attente_de_révision;224
E27;E26;Traduit_en_attente_de_révision;66
E90;E72;A_traduire;174
E73;E90;A_traduire;152
E29;E73;Traduit_en_attente_de_révision;98
E31;E73;Traduit_en_attente_de_révision;57
E32;E31;Traduit_en_attente_de_révision;20
E33;E73;En_cours_de_traduction;245
E34;E33;Traduit_en_attente_de_révision;113
E35;E33;Traduit_en_attente_de_révision;129
E36;E73;Traduit_en_attente_de_révision;190
E37;E36;Traduit_en_attente_de_révision;93
E41;E90;Traduit_en_attente_de_révision;328
E42;E41;A_traduire;91
E95;E41;Not_in_pipe;287
E94;E41;En_cours_de_traduction;256
E61;E41;A_traduire;220
E71;E70;Traduit_en_attente_de_révision;50
E28;E71;Traduit_en_attente_de_révision;142
E89;E28;Traduit_en_attente_de_révision;117
E30;E89;Validé;20
E55;E28;Validé;101
E56;E55;Validé;82
E57;E55;Traduit_en_attente_de_révision;147
E58;E55;Traduit_en_attente_de_révision;86
E98;E58;Traduit_en_attente_de_révision;160
E99;E55;Traduit_en_attente_de_révision;229
E39;E77;Validé;27
E74;E39;En_cours_de_révision;187
E52;E1;Traduit_en_attente_de_révision;285
E53;E1;Traduit_en_attente_de_révision;234
E54;E1;A_traduire;309
E97;E54;Not_in_pipe;93
E92;E1;A_traduire;139
E93;E92;A_traduire;183
E59;E1;A_traduire;256
E60;E59;A_traduire;105
E62;E59;A_traduire;93
P1;E1;Traduit_en_attente_de_révision;175
P48;E1;Not_in_pipe;103
P102;E70;A_traduire;87
P168i;E1;;60
P169i;E1;;19
P170i;E1;;60
P2;E1;Traduit_en_attente_de_révision;165
P137;E1;Not_in_pipe;87
P177;E7;Traduit_en_attente_de_révision;129
P3;E1;Traduit_en_attente_de_révision;143
P79;E1;Validé;46
P80;E1;Validé;50
P190;E72;Traduit_en_attente_de_révision;148
P4;E1;Not_in_pipe;76
P5;;;
P7;E2;En_cours_de_révision;233
P8;E2;Not_in_pipe;118
P12;E4;En_cours_de_révision;168
P111;E11;Not_in_pipe;21
P113;E11;Not_in_pipe;21
P11;E4;Validé;147
P14;E5;Traduit_en_attente_de_révision;42
P22;E7;Traduit_en_attente_de_révision;79
P23;E7;Traduit_en_attente_de_révision;52
P28;E7;Traduit_en_attente_de_révision;75
P29;E7;Traduit_en_attente_de_révision;76
P96;E63;Traduit_en_attente_de_révision;92
P99;E64;Validé;18
P143;E7;A_traduire;71
P144;E7;A_traduire;133
P145;E7;A_traduire;22
P146;E7;A_traduire;52
P151;E7;A_traduire;34
P16;E5;Traduit_en_attente_de_révision;140
P33;E5;Traduit_en_attente_de_révision;86
P111;E11;Not_in_pipe;21
P142;E13;Traduit_en_attente_de_révision;31
P25;E7;Traduit_en_attente_de_révision;49
P31;E7;Traduit_en_attente_de_révision;17
P108;E11;Not_in_pipe;65
P110;E11;Not_in_pipe;69
P112;E11;Not_in_pipe;62
P92;E5;Not_in_pipe;55
P94;E7;En_cours_de_traduction;69
P135;E65;Traduit_en_attente_de_révision;20
P95;E7;A_traduire;18
P98;E63;Traduit_en_attente_de_révision;62
P108;E11;Not_in_pipe;65
P123;E63;Not_in_pipe;59
P93;E5;A_traduire;133
P13;E64;A_traduire;81
P99;E64;Validé;18
P100;E64;Validé;49
P124;E63;Not_in_pipe;61
P15;E5;Traduit_en_attente_de_révision;41
P16;E5;Traduit_en_attente_de_révision;140
P33;E5;Traduit_en_attente_de_révision;86
P111;E11;Not_in_pipe;21
P142;E13;Traduit_en_attente_de_révision;31
P17;E5;Traduit_en_attente_de_révision;46
P134;E5;Traduit_en_attente_de_révision;75
P136;E65;En_cours_de_traduction;78
P19;E5;Traduit_en_attente_de_révision;65
P20;E5;Traduit_en_attente_de_révision;106
P21;E5;Traduit_en_attente_de_révision;68
P24;E7;Traduit_en_attente_de_révision;29
P26;E7;Traduit_en_attente_de_révision;104
P27;E7;Traduit_en_attente_de_révision;105
P30;E7;Traduit_en_attente_de_révision;63
P43;E77;A_traduire;126
P44;E72;Validé;75
P45;E72;Validé;70
P49;E72;Validé;192
P50;E72;Validé;85
P109;E24;Traduit_en_attente_de_révision;50
P51;E72;Validé;99
P52;E72;Validé;80
P53;E72;Validé;123
P55;E18;Traduit_en_attente_de_révision;137
P156;E72;Traduit_en_attente_de_révision;382
P54;E18;Validé;106
P57;E18;Validé;110
P59;E72;Validé;96
P62;E18;Traduit_en_attente_de_révision;131
P67;E28;A_traduire;78
P68;E73;A_traduire;84
P70;E73;A_traduire;67
P71;E31;Not_in_pipe;23
P129;E28;A_traduire;56
P138;E73;A_traduire;152
P69;E73;A_traduire;119
P72;E73;A_traduire;42
P74;E77;A_traduire;41
P75;E77;A_traduire;26
P76;E77;A_traduire;36
P81;E1;Traduit_en_attente_de_révision;122
P82;E1;Traduit_en_attente_de_révision;112
P86;E1;Traduit_en_attente_de_révision;61
P89;E1;En_cours_de_traduction;45
P90;E1;Not_in_pipe;19
P91;E1;Not_in_pipe;16
P180;E54;Not_in_pipe;24
P97;E63;Traduit_en_attente_de_révision;106
P101;E77;Traduit_en_attente_de_révision;155
P103;E70;A_traduire;65
P104;E70;A_traduire;39
P105;E70;A_traduire;76
P52;E72;Validé;80
P106;E72;Validé;41
P165;E90;A_traduire;275
P107;E39;Not_in_pipe;102
P121;E1;En_cours_de_traduction;88
P122;E1;En_cours_de_traduction;86
P125;E5;Traduit_en_attente_de_révision;74
P32;E5;Traduit_en_attente_de_révision;63
P126;E7;Traduit_en_attente_de_révision;51
P127;E28;Traduit_en_attente_de_révision;54
P130;E77;A_traduire;269
P73i;E73;;60
P128;E72;Traduit_en_attente_de_révision;138
P65;E18;Traduit_en_attente_de_révision;226
P132;E1;En_cours_de_traduction;160
P10;E1;A_traduire;42
P166;E92;A_traduire;43
P46;E72;Validé;185
P56;E18;Validé;161
P133;E1;Not_in_pipe;163
P139;E90;A_traduire;153
P140;E7;Traduit_en_attente_de_révision;52
P34;E13;Traduit_en_attente_de_révision;56
P39;E13;Validé;51
P41;E13;En_cours_de_traduction;77
P141;E7;Traduit_en_attente_de_révision;51
P35;E13;Traduit_en_attente_de_révision;21
P37;E13;Traduit_en_attente_de_révision;39
P38;E13;Traduit_en_attente_de_révision;56
P40;E13;Traduit_en_attente_de_révision;103
P42;E13;En_cours_de_traduction;111
P147;E7;A_traduire;32
P148;E28;A_traduire;30
P150;E28;Traduit_en_attente_de_révision;77
P152;E20;Not_in_pipe;104
P157;E1;Traduit_en_attente_de_révision;110
P59i;E1;;96
P156i;E1;;382
P160;E1;Not_in_pipe;43
P164;E92;A_traduire;144
P161;E1;Not_in_pipe;298
P167;E92;A_traduire;107
P171;E1;Not_in_pipe;119
P172;E1;Not_in_pipe;103
P173;E1;Not_in_pipe;43
P174;E1;Not_in_pipe;41
P184;E1;Not_in_pipe;43
P185;E1;Not_in_pipe;41
P182;E1;Not_in_pipe;43
P175;E1;Not_in_pipe;43
P176;E1;Not_in_pipe;41
P134i;E5;;75
P182;E1;Not_in_pipe;43
P183;E1;Not_in_pipe;41
P179;E8;Traduit_en_attente_de_révision;40
P186;E11;Not_in_pipe;25
P187;E55;Traduit_en_attente_de_révision;100
P188;E55;Traduit_en_attente_de_révision;99
P189;E1;Not_in_pipe;255
P191;E1;Traduit_en_attente_de_révision;62
P195;E92;A_traduire;101
P196;E72;Traduit_en_attente_de_révision;234
P197;E92;A_traduire;146
P198;E72;Validé;221
