E18; 5-Valide;215
P44; 5-Valide;75
P45; 5-Valide;70
P49; 5-Valide;192
P50; 5-Valide;85
P51; 5-Valide;99
P52; 5-Valide;80
P53; 5-Valide;123
P156; ;382
P59; ;96
P128; 5-Valide;138
P46; 5-Valide;185
P196; 5-Valide;234
P198; 5-Valide;221
E90; 5-Valide;174
P190; 5-Valide;148
P106; 5-Valide;41
