E14; 3-Traduit en attente de revision;63
P34; 3-Traduit en attente de revision;56
P35; 3-Traduit en attente de revision;21
E15; 4-En cours de revision;211
P142; 3-Traduit en attente de revision;31
P37; 3-Traduit en attente de revision;39
P38; 3-Traduit en attente de revision;56
E16; 3-Traduit en attente de revision;400
P39; 5-Valide;51
P40; 3-Traduit en attente de revision;103
E17; 3-Traduit en attente de revision;76
P41; 2-En cours de traduction;77
P42; 2-En cours de traduction;111
